{
  "project_info": {
    "project_number": "375672306761",
    "firebase_url": "https://jainniyam-7665c.firebaseio.com",
    "project_id": "jainniyam-7665c",
    "storage_bucket": "jainniyam-7665c.appspot.com"
  },
  "client": [
    {
      "client_info": {
        "mobilesdk_app_id": "1:375672306761:android:feec7a4566120492",
        "android_client_info": {
          "package_name": "com.tickpath.jainniyam"
        }
      },
      "oauth_client": [
        {
          "client_id": "375672306761-2gpvmac6tfs3dajlub9jg6muvnem7ird.apps.googleusercontent.com",
          "client_type": 3
        }
      ],
      "api_key": [
        {
          "current_key": "AIzaSyDr7YurL3Txcg0W5Syv8d2A3GXSRzlZtX4"
        }
      ],
      "services": {
        "analytics_service": {
          "status": 1
        },
        "appinvite_service": {
          "status": 1,
          "other_platform_oauth_client": []
        },
        "ads_service": {
          "status": 2
        }
      }
    }
  ],
  "configuration_version": "1"
}